../App/Menu/Main_Menu.c:24:6:MAIN_MENU_Init	48	static
../App/Menu/Main_Menu.c:87:6:MAIN_MENU_Display_Num	32	static
../App/Menu/Main_Menu.c:102:6:MAIN_MENU_Display	32	static
../App/Menu/Main_Menu.c:130:6:MAIN_MENU_Set_State	4	static
../App/Menu/Main_Menu.c:136:6:MAIN_MENU_Update_Value	4	static
